…
  #count does the same thing as group_by and summarise
  # name = "count" will call the column with the counts "count" ( exciting, I know)
  # and 'sort=TRUE' will sort them from max to min
  count(animal_group_parent, name="count", sort=TRUE) %>% 
  mutate(percent = round(100*count/sum(count),2))

## # A tibble: 28 x 3
##    animal_group_parent              count percent
##    <chr>                            <int>   <dbl>
##  1 Cat                               3783   48.0 
##  2 Bird                              1631   20.7 
##  3 Dog                               1230   15.6 
##  4 Fox                                373    4.74
##  5 Unknown - Domestic Animal Or Pet   201    2.55
##  6 Horse                              195    2.48
##  7 Deer                               136    1.73
##  8 Unknown - Wild Animal               94    1.19
##  9 Squirrel                            68    0.86
## 10 Unknown - Heavy Livestock Animal    50    0.64
## # … with 18 more rows
…
